<?xml version="1.0" encoding="UTF-8"?>
<session version="1.0">
<refactoring comment="Rename Java project &apos;Questão 6&apos; to &apos;Questão6&apos;&#x0D;&#x0A;- Original element: &apos;Questão 6&apos;&#x0D;&#x0A;- Renamed element: &apos;Questão 6&apos;&#x0D;&#x0A;- Update references to refactored element" description="Rename Java project &apos;Questão 6&apos;" flags="7" id="org.eclipse.jdt.ui.rename.java.project" input="=Questão 6" name="Questão6" references="true" stamp="1490838733250" version="1.0"/>
</session>